﻿{
  "iisSettings": {
    "windowsAuthentication": false,
    "anonymousAuthentication": true,
    "iisExpress": {
      "applicationUrl": "http://localhost:54332",
      "sslPort": 44365
    }
  },
  "$schema": "http://json.schemastore.org/launchsettings.json",
  "profiles": {
    "Test": {
      "commandName": "IISExpress",
      "launchBrowser": true,
      "launchUrl": "",
      "environmentVariables": {
        "ASPNETCORE_ENVIRONMENT": "Test"
      }
    },
    "Development": {
      "commandName": "IISExpress",
      "launchBrowser": true,
      "launchUrl": "",
      "environmentVariables": {
        "ASPNETCORE_ENVIRONMENT": "Development"
      },
      "applicationUrl": "https://localhost:5001;http://localhost:5000"
    },
    "Productive": {
      "commandName": "IISExpress",
      "launchBrowser": true,
      "launchUrl": "",
      "environmentVariables": {
        "ASPNETCORE_ENVIRONMENT": "Productive"
      }
    }
    //"profiles": {
    //  "IIS Express": {
    //    "commandName": "IISExpress",
    //    "launchBrowser": true,
    //    "environmentVariables": {
    //      "ASPNETCORE_ENVIRONMENT": "Development"
    //    }
    //  },
    //  "CryptoStats.UI": {
    //    "commandName": "Project",
    //    "launchBrowser": true,
    //    "applicationUrl": "https://localhost:5001;http://localhost:5000",
    //    "environmentVariables": {
    //      "ASPNETCORE_ENVIRONMENT": "Development"
    //    }
    //  }
  }
}
